A3: Spatial Network
…
df = as.data.frame(dm3)
df$whichMin = apply(dm3, 1, which.min)
df$minDistance = apply(dm3, 1, FUN=min, na.rm=T)

Ιεράρχηση ανά γκρούπ

library(dplyr)
df3 = df %>%
  group_by(whichMin) %>%
  mutate(my_ranks = order(order(minDistance, decreasing=F)))

df3

## # A tibble: 3,078 × 7
## # Groups:   whichMin [4]
##       V1   V2    V3    V4 whichMin minDistance my_ranks
##      [m]  [m]   [m]   [m]    <int>       <dbl>    <int>
##  1 4854. 980. 2641. 3342.        2        980.      417
##  2 4748. 875. 2540. 3237.        2        875.      324
##  3 4709. 811. 2437. 3197.        2        811.      276
##  4 4755. 859. 2422. 3243.        2        859.      306
##  5 4716. 820. 2342. 3204.        2        820.      282
##  6 4686. 826. 2549. 3174.        2        826.      285
##  7 4632. 736. 2638. 3121.        2        736.      224
##  8 4562. 666. 2675. 3051.        2        666.      168
##  9 4439. 543. 2742. 2927.        2        543.      107
## 10 4371. 622. 2807. 2860.        2        622.      148
## # ℹ 3,068 more rows
…
